…
The values for Group Means for yes and no are pretty similar.

## Question 3

The peaks for received\_callback yes and no are at the locations for the
group means of yes and no.

## Task 5

``` r
predict(lda_years, new_data = resume, type = "prob")
```

    ## # A tibble: 4,870 × 2
    ##    .pred_No .pred_Yes
    ##       <dbl>     <dbl>
    ##  1    0.923    0.0769
    ##  2    0.923    0.0769
    ##  3    0.923    0.0769
    ##  4    0.923    0.0769
    ##  5    0.884    0.116 
    ##  6    0.923    0.0769
    ##  7    0.928    0.0724
    ##  8    0.885    0.115 
    ##  9    0.939    0.0612
    ## 10    0.923    0.0769
    ## # … with 4,860 more rows
…
